<?xml version="1.0" encoding="utf-8"?>
<!-- Generator: Adobe Illustrator 18.1.0, SVG Export Plug-In . SVG Version: 6.00 Build 0)  -->
<svg version="1.1" id="TRS_x5F_Logo_x5F_Stacked_x5F_Diapositive_x5F_RGB"
	 xmlns="http://www.w3.org/2000/svg" xmlns:xlink="http://www.w3.org/1999/xlink" x="0px" y="0px" viewBox="0 0 85 99.2"
	 enable-background="new 0 0 85 99.2" xml:space="preserve">
<g>
	<path fill="#FFFFFF" d="M70.9,42.5c0-15.8-12.5-28.3-28.3-28.3c-15.8,0-28.3,12.6-28.3,28.3c0,15.8,12.5,28.3,28.3,28.3
		C58.3,70.9,70.9,58.3,70.9,42.5L70.9,42.5z"/>
	<path fill="#00D66C" d="M55,46.7h-1.6c-1.6,0-2.3,0.9-2.5,2.5c-0.4,3-2.8,5.1-5.9,5.1c-3.6,0-6-2.7-6-6.5v-9.1c0-0.4,0-0.7-0.1-1
		c0.3,0.2,0.8,0.2,1.2,0.2h8.4c1.6,0,2.5-0.9,2.5-2.5v-0.7c0-1.6-0.9-2.5-2.5-2.5h-4.7V27c0-1.6-0.9-2.5-2.5-2.5h-1.1
		c-1.6,0-2.5,0.9-2.5,2.5v8.4c0,0.4,0,0.7,0.1,1c-0.3-0.2-0.8-0.2-1.2-0.2h-8.4c-1.6,0-2.5,0.9-2.5,2.5v0.7c0,1.6,0.9,2.5,2.5,2.5
		h4.7v5.9c0,7.3,4.7,12.5,12.1,12.5c6.9,0,11.4-4.4,12.3-11C57.6,47.5,56.5,46.7,55,46.7z"/>
</g>
<g>
	<path fill="#FFFFFF" d="M19.7,85.1h1.5v-3.4c0-1.2,0.7-1.6,1.4-1.6c0.5,0,0.8,0.1,1.1,0.4l0.7-1.2c-0.4-0.4-1-0.6-1.5-0.6
		c-0.7,0-1.4,0.3-1.8,1L21,78.8h-1.3V85.1z M63.1,77.3c0-0.6-0.5-0.9-0.9-0.9c-0.5,0-0.9,0.3-0.9,0.9c0,0.6,0.5,0.9,0.9,0.9
		C62.7,78.2,63.1,77.9,63.1,77.3L63.1,77.3z M16.9,77l-1.5,0.2v1.6h-1.2v1.3h1.2v2.8c0,1.5,0.9,2.2,2.2,2.2c0.6,0,1-0.1,1.3-0.3
		l-0.4-1.2c-0.2,0.1-0.5,0.2-0.8,0.2c-0.5,0-0.8-0.3-0.8-0.9v-2.7h1.7v-1.3h-1.7V77z M31.2,78.8h-1.4l-0.1,0.9c-0.3-0.6-1-1-2.1-1
		c-1.7,0-3.2,1.1-3.2,3.3c0,2.2,1.5,3.3,3.2,3.3c1.1,0,1.8-0.4,2.1-1l0.1,0.9h1.4V78.8z M61.5,78.8v6.3H63v-6.3H61.5z M27.8,83.8
		c-1.1,0-1.8-0.7-1.8-1.9s0.8-1.9,1.8-1.9c1.1,0,1.8,0.7,1.8,1.9S28.9,83.8,27.8,83.8L27.8,83.8z M53,78.8h-1.4l-0.1,0.9
		c-0.3-0.6-1-1-2.1-1c-1.7,0-3.2,1.1-3.2,3.3c0,2.2,1.5,3.3,3.2,3.3c1.1,0,1.8-0.4,2.1-1l0.1,0.9H53V78.8z M49.6,83.8
		c-1.1,0-1.8-0.7-1.8-1.9s0.8-1.9,1.8-1.9c1.1,0,1.8,0.7,1.8,1.9S50.7,83.8,49.6,83.8L49.6,83.8z M70.9,78.8h-1.4l-0.1,0.9
		c-0.3-0.6-1-1-2.1-1c-1.7,0-3.2,1.1-3.2,3.3c0,2.2,1.5,3.3,3.2,3.3c1.1,0,1.8-0.4,2.1-1l0.1,0.9h1.4V78.8z M67.5,83.8
		c-1.1,0-1.8-0.7-1.8-1.9s0.8-1.9,1.8-1.9c1.1,0,1.8,0.7,1.8,1.9S68.5,83.8,67.5,83.8L67.5,83.8z M58,85.1l2.7-6.3h-1.6l-1.8,4.6
		l-1.8-4.6h-1.7l2.7,6.3H58z M32.7,85.1h1.5v-3.4c0-1.1,0.7-1.7,1.6-1.7c0.9,0,1.5,0.6,1.5,1.7v3.4h1.5v-3.6c0-1.9-1.2-2.8-2.6-2.8
		c-1,0-1.7,0.4-2.1,1l-0.1-0.9h-1.4V85.1z M42.7,85.2c1.9,0,2.8-0.9,2.8-2c0-1.4-1.3-1.8-2.4-1.9c-0.6-0.1-1.6-0.1-1.6-0.7
		c0-0.4,0.5-0.6,1.2-0.6c0.6,0,1.2,0.2,1.7,0.6l0.8-1c-0.7-0.6-1.5-0.8-2.4-0.8c-1.3,0-2.8,0.5-2.8,2c0,1.4,1.2,1.8,2.4,1.9
		c0.7,0.1,1.6,0.1,1.6,0.7c0,0.4-0.5,0.6-1.1,0.6c-0.7,0-1.7-0.3-2.3-0.9l-0.8,1C40.5,84.9,41.7,85.2,42.7,85.2z"/>
</g>
<rect x="0" fill="none" width="85" height="99.2"/>
</svg>
