<?xml version="1.0" encoding="utf-8"?>
<!-- Generator: Adobe Illustrator 19.2.1, SVG Export Plug-In . SVG Version: 6.00 Build 0)  -->
<svg version="1.1" id="Layer_1" xmlns="http://www.w3.org/2000/svg" xmlns:xlink="http://www.w3.org/1999/xlink" x="0px" y="0px"
	 width="184.252px" height="56.693px" viewBox="0 0 184.252 56.693" enable-background="new 0 0 184.252 56.693"
	 xml:space="preserve">
<path fill="#FFFFFF" d="M42.463,28.348c0-7.896-6.248-14.175-14.145-14.175c-7.895,0-14.145,6.279-14.145,14.175
	c0,7.894,6.25,14.171,14.145,14.171C36.215,42.519,42.463,36.242,42.463,28.348"/>
<path fill="#00D66C" d="M34.567,30.393h-0.795c-0.796,0-1.136,0.424-1.25,1.248c-0.199,1.506-1.392,2.527-2.955,2.527
	c-1.817,0-2.981-1.334-2.981-3.265v-4.544c0-0.18-0.025-0.341-0.07-0.485c0.172,0.076,0.375,0.116,0.609,0.116H31.3
	c0.796,0,1.25-0.455,1.25-1.25v-0.368c0-0.797-0.454-1.25-1.25-1.25h-2.356v-2.558c0-0.794-0.456-1.249-1.25-1.249h-0.569
	c-0.795,0-1.249,0.455-1.249,1.249v4.176c0,0.181,0.024,0.341,0.069,0.486c-0.171-0.077-0.375-0.117-0.609-0.117h-4.175
	c-0.796,0-1.25,0.455-1.25,1.25v0.369c0,0.796,0.454,1.25,1.25,1.25h2.358v2.925c0,3.664,2.357,6.22,6.048,6.22
	c3.438,0,5.71-2.187,6.136-5.482C35.817,30.817,35.277,30.393,34.567,30.393"/>
<path fill="#FFFFFF" d="M61.867,35.862h3.322v-7.22c0-2.61,1.424-3.519,3.126-3.519c0.988,0,1.72,0.296,2.392,0.869l1.505-2.65
	c-0.912-0.83-2.118-1.246-3.304-1.246c-1.583,0-3.125,0.732-3.916,2.157l-0.217-1.879h-2.908V35.862z M155.555,19.169
	c0-1.285-0.988-1.939-1.979-1.939c-0.966,0-1.957,0.654-1.957,1.939c0,1.304,0.991,1.938,1.957,1.938
	C154.567,21.107,155.555,20.473,155.555,19.169 M55.795,18.497l-3.323,0.356v3.521h-2.491v2.868h2.491v6.032
	c0,3.242,1.859,4.746,4.648,4.746c1.187,0,2.197-0.278,2.908-0.674l-0.891-2.689c-0.474,0.216-1.067,0.376-1.622,0.376
	c-1.107,0-1.72-0.632-1.72-1.917v-5.874h3.717v-2.868h-3.717V18.497z M86.688,22.374h-2.985l-0.218,1.879
	c-0.752-1.246-2.236-2.157-4.549-2.157c-3.7,0-6.904,2.315-6.904,7.022c0,4.706,3.204,7.019,6.904,7.019
	c2.313,0,3.797-0.908,4.549-2.154l0.218,1.879h2.985V22.374z M151.916,35.862h3.324V22.374h-3.324V35.862z M79.39,33.25
	c-2.274,0-3.975-1.521-3.975-4.132s1.701-4.134,3.975-4.134c2.275,0,3.975,1.523,3.975,4.134S81.665,33.25,79.39,33.25
	 M133.662,22.374h-2.988l-0.219,1.879c-0.75-1.246-2.232-2.157-4.547-2.157c-3.699,0-6.902,2.315-6.902,7.022
	c0,4.706,3.203,7.019,6.902,7.019c2.315,0,3.797-0.908,4.547-2.154l0.219,1.879h2.988V22.374z M126.363,33.25
	c-2.275,0-3.976-1.521-3.976-4.132s1.701-4.134,3.976-4.134c2.276,0,3.977,1.523,3.977,4.134S128.639,33.25,126.363,33.25
	 M172.209,22.374h-2.988l-0.217,1.879c-0.75-1.246-2.234-2.157-4.547-2.157c-3.699,0-6.904,2.315-6.904,7.022
	c0,4.706,3.205,7.019,6.904,7.019c2.313,0,3.797-0.908,4.547-2.154l0.217,1.879h2.988V22.374z M164.91,33.25
	c-2.273,0-3.974-1.521-3.974-4.132s1.701-4.134,3.974-4.134c2.276,0,3.977,1.523,3.977,4.134S167.186,33.25,164.91,33.25
	 M144.539,35.862l5.756-13.488h-3.461l-3.935,9.947l-3.938-9.947h-3.678l5.754,13.488H144.539z M89.853,35.862h3.323v-7.238
	c0-2.276,1.463-3.561,3.4-3.561c1.94,0,3.264,1.285,3.264,3.561v7.238h3.324v-7.733c0-4.016-2.494-6.033-5.678-6.033
	c-2.116,0-3.677,0.89-4.429,2.157l-0.216-1.879h-2.988V35.862z M111.549,36.137c4.174,0,5.934-1.896,5.934-4.291
	c0-3.025-2.848-3.777-5.143-4.074c-1.324-0.177-3.361-0.296-3.361-1.6c0-0.97,1.146-1.386,2.57-1.386
	c1.285,0,2.572,0.337,3.621,1.246l1.68-2.216c-1.483-1.284-3.203-1.72-5.143-1.72c-2.887,0-6.092,0.99-6.092,4.233
	c0,2.986,2.69,3.777,5.143,4.093c1.402,0.178,3.363,0.317,3.363,1.604c0,0.947-1.068,1.382-2.453,1.382
	c-1.564,0-3.619-0.572-4.867-1.878l-1.68,2.214C106.822,35.623,109.373,36.137,111.549,36.137"/>
<rect y="0" fill="none" width="184.252" height="56.693"/>
</svg>
